# vtk DataFile Version 3.0
This file was written using writevtk_unstr.m
ASCII
DATASET UNSTRUCTURED_GRID
POINTS 518 double
               12.9943                 18.992                 18.992
               11.9943                 17.992                 19.992
               13.9943                 17.992                 19.992
               12.9943                 16.992                 20.992
               10.9943                 18.992                 18.992
     9.994289999999999                 17.992                 19.992
               10.9943                 16.992                 20.992
               14.9943                 16.992                 18.992
               13.9943                 15.992                 19.992
               15.9943                 15.992                 19.992
               14.9943                 14.992                 20.992
               11.9943                 15.992                 19.992
               12.9943                 14.992                 20.992
     8.994289999999999                 16.992                 18.992
     9.994289999999999                 15.992                 19.992
               10.9943                 14.992                 20.992
               7.99429                 15.992                 19.992
     8.994289999999999                 14.992                 20.992
               16.9943                 14.992                 18.992
               15.9943                 13.992                 19.992
               17.9943                 13.992                 19.992
               16.9943                 12.992                 20.992
               14.9943                 12.992                 20.992
               12.9943                 12.992                 20.992
               13.9943                 13.992                 21.992
               10.9943                 12.992                 20.992
               11.9943                 13.992                 21.992
     8.994289999999999                 12.992                 20.992
     9.994289999999999                 13.992                 21.992
               6.99429                 14.992                 18.992
               7.99429                 13.992                 19.992
               5.99429                 13.992                 19.992
               6.99429                 12.992                 20.992
               18.9943                 12.992                 18.992
               17.9943                 11.992                 19.992
               15.9943                 11.992                 19.992
               16.9943                 10.992                 20.992
               14.9943                 10.992                 20.992
               12.9943                 10.992                 20.992
               13.9943                 11.992                 21.992
               10.9943                 10.992                 20.992
               11.9943                 11.992                 21.992
     8.994289999999999                 10.992                 20.992
     9.994289999999999                 11.992                 21.992
               7.99429                 11.992                 19.992
               4.99429                 12.992                 18.992
               5.99429                 11.992                 19.992
               6.99429                 10.992                 20.992
               18.9943                 10.992                 18.992
               17.9943      9.992000000000001                 19.992
               15.9943      9.992000000000001                 19.992
               16.9943      8.992000000000001                 18.992
               14.9943      8.992000000000001                 20.992
               12.9943      8.992000000000001                 20.992
               13.9943      9.992000000000001                 21.992
               10.9943      8.992000000000001                 20.992
               11.9943      9.992000000000001                 21.992
     8.994289999999999      8.992000000000001                 20.992
     9.994289999999999      9.992000000000001                 21.992
               7.99429      9.992000000000001                 19.992
               4.99429                 10.992                 18.992
               5.99429      9.992000000000001                 19.992
               6.99429      8.992000000000001                 18.992
               15.9943                  7.992                 19.992
               13.9943                  7.992                 19.992
               14.9943                  6.992                 18.992
               11.9943                  7.992                 19.992
               12.9943                  6.992                 20.992
     9.994289999999999                  7.992                 19.992
               10.9943                  6.992                 20.992
               7.99429                  7.992                 19.992
     8.994289999999999                  6.992                 18.992
               13.9943                  5.992                 19.992
               11.9943                  5.992                 19.992
               12.9943                  4.992                 18.992
     9.994289999999999                  5.992                 19.992
               10.9943                  4.992                 18.992
               12.9943                 20.992                 16.992
               11.9943                 19.992                 17.992
               13.9943                 19.992                 17.992
               10.9943                 20.992                 16.992
     9.994289999999999                 19.992                 17.992
               16.9943                 18.992                 16.992
               15.9943                 17.992                 17.992
               17.9943                 17.992                 17.992
               16.9943                 16.992                 18.992
               14.9943                 18.992                 16.992
               14.9943                 18.992                 18.992
     8.994289999999999                 18.992                 16.992
     8.994289999999999                 18.992                 18.992
               7.99429                 17.992                 17.992
               6.99429                 18.992                 16.992
               5.99429                 17.992                 17.992
               6.99429                 16.992                 18.992
               18.9943                 16.992                 16.992
               17.9943                 15.992                 17.992
               4.99429                 16.992                 16.992
               5.99429                 15.992                 17.992
               18.9943                 14.992                 16.992
               18.9943                 14.992                 18.992
               19.9943                 13.992                 17.992
               4.99429                 14.992                 16.992
               4.99429                 14.992                 18.992
               3.99429                 13.992                 17.992
               20.9943                 12.992                 16.992
               19.9943                 11.992                 17.992
               2.99429                 12.992                 16.992
               3.99429                 11.992                 17.992
               20.9943                 10.992                 16.992
               19.9943      9.992000000000001                 17.992
               18.9943      8.992000000000001                 16.992
               18.9943      8.992000000000001                 18.992
               4.99429      8.992000000000001                 18.992
               2.99429                 10.992                 16.992
               3.99429      9.992000000000001                 17.992
               4.99429      8.992000000000001                 16.992
               17.9943                  7.992                 17.992
               16.9943                  6.992                 18.992
               6.99429                  6.992                 18.992
               5.99429                  7.992                 17.992
               18.9943                  6.992                 16.992
               17.9943                  5.992                 17.992
               15.9943                  5.992                 17.992
               16.9943                  4.992                 16.992
               14.9943                  4.992                 16.992
               14.9943                  4.992                 18.992
     8.994289999999999                  4.992                 18.992
               7.99429                  5.992                 17.992
     8.994289999999999                  4.992                 16.992
               4.99429                  6.992                 16.992
               5.99429                  5.992                 17.992
               6.99429                  4.992                 16.992
               13.9943                  3.992                 17.992
               11.9943                  3.992                 17.992
               12.9943                  2.992                 16.992
     9.994289999999999                  3.992                 17.992
               10.9943                  2.992                 16.992
               14.9943                 20.992                 14.992
               13.9943                 19.992                 15.992
               15.9943                 19.992                 15.992
               12.9943                 20.992                 14.992
               11.9943                 19.992                 15.992
               10.9943                 20.992                 14.992
     9.994289999999999                 19.992                 15.992
     8.994289999999999                 20.992                 14.992
               7.99429                 19.992                 15.992
               17.9943                 17.992                 15.992
               16.9943                 18.992                 14.992
               6.99429                 18.992                 14.992
               5.99429                 17.992                 15.992
               18.9943                 16.992                 14.992
               19.9943                 15.992                 15.992
               4.99429                 16.992                 14.992
               3.99429                 15.992                 15.992
               20.9943                 14.992                 14.992
               19.9943                 13.992                 15.992
               2.99429                 14.992                 14.992
               3.99429                 13.992                 15.992
               20.9943                 12.992                 14.992
               19.9943                 11.992                 15.992
               2.99429                 12.992                 14.992
               3.99429                 11.992                 15.992
               20.9943                 10.992                 14.992
               19.9943      9.992000000000001                 15.992
               2.99429                 10.992                 14.992
               3.99429      9.992000000000001                 15.992
               20.9943      8.992000000000001                 14.992
               19.9943                  7.992                 15.992
               18.9943                  6.992                 14.992
               2.99429      8.992000000000001                 14.992
               3.99429                  7.992                 15.992
               4.99429                  6.992                 14.992
               17.9943                  5.992                 15.992
               16.9943                  4.992                 14.992
               5.99429                  5.992                 15.992
               6.99429                  4.992                 14.992
               15.9943                  3.992                 15.992
               13.9943                  3.992                 15.992
               14.9943                  2.992                 14.992
               11.9943                  3.992                 15.992
               12.9943                  2.992                 14.992
     9.994289999999999                  3.992                 15.992
               10.9943                  2.992                 14.992
               7.99429                  3.992                 15.992
     8.994289999999999                  2.992                 14.992
               16.9943                 20.992                 12.992
               15.9943                 19.992                 13.992
               17.9943                 19.992                 13.992
               14.9943                 20.992                 12.992
               12.9943                 20.992                 12.992
               13.9943                 21.992                 13.992
               10.9943                 20.992                 12.992
               11.9943                 21.992                 13.992
     8.994289999999999                 20.992                 12.992
     9.994289999999999                 21.992                 13.992
               7.99429                 19.992                 13.992
               6.99429                 20.992                 12.992
               5.99429                 19.992                 13.992
               18.9943                 18.992                 12.992
               18.9943                 18.992                 14.992
               19.9943                 17.992                 13.992
               4.99429                 18.992                 12.992
               4.99429                 18.992                 14.992
               3.99429                 17.992                 13.992
               20.9943                 16.992                 12.992
               19.9943                 15.992                 13.992
               2.99429                 16.992                 12.992
               3.99429                 15.992                 13.992
               20.9943                 14.992                 12.992
               20.9943                 12.992                 12.992
               21.9943                 13.992                 13.992
               2.99429                 14.992                 12.992
               2.99429                 12.992                 12.992
               1.99429                 13.992                 13.992
               20.9943                 10.992                 12.992
               21.9943                 11.992                 13.992
               2.99429                 10.992                 12.992
               1.99429                 11.992                 13.992
               20.9943      8.992000000000001                 12.992
               21.9943      9.992000000000001                 13.992
               2.99429      8.992000000000001                 12.992
               1.99429      9.992000000000001                 13.992
               19.9943                  7.992                 13.992
               3.99429                  7.992                 13.992
               20.9943                  6.992                 12.992
               19.9943                  5.992                 13.992
               18.9943                  4.992                 12.992
               18.9943                  4.992                 14.992
               4.99429                  4.992                 14.992
               2.99429                  6.992                 12.992
               3.99429                  5.992                 13.992
               4.99429                  4.992                 12.992
               17.9943                  3.992                 13.992
               15.9943                  3.992                 13.992
               16.9943                  2.992                 12.992
               14.9943                  2.992                 12.992
               12.9943                  2.992                 12.992
               10.9943                  2.992                 12.992
               7.99429                  3.992                 13.992
     8.994289999999999                  2.992                 12.992
               5.99429                  3.992                 13.992
               6.99429                  2.992                 12.992
               13.9943                  1.992                 13.992
               11.9943                  1.992                 13.992
     9.994289999999999                  1.992                 13.992
               17.9943                 19.992                 11.992
               16.9943                 20.992                 10.992
               15.9943                 19.992                 11.992
               14.9943                 20.992                 10.992
               12.9943                 20.992                 10.992
               13.9943                 21.992                 11.992
               10.9943                 20.992                 10.992
               11.9943                 21.992                 11.992
     8.994289999999999                 20.992                 10.992
     9.994289999999999                 21.992                 11.992
               7.99429                 19.992                 11.992
               6.99429                 20.992                 10.992
               5.99429                 19.992                 11.992
               19.9943                 17.992                 11.992
               18.9943                 18.992                 10.992
               4.99429                 18.992                 10.992
               3.99429                 17.992                 11.992
               20.9943                 16.992                 10.992
               19.9943                 15.992                 11.992
               2.99429                 16.992                 10.992
               3.99429                 15.992                 11.992
               20.9943                 14.992                 10.992
               20.9943                 12.992                 10.992
               21.9943                 13.992                 11.992
               2.99429                 14.992                 10.992
               2.99429                 12.992                 10.992
               1.99429                 13.992                 11.992
               20.9943                 10.992                 10.992
               21.9943                 11.992                 11.992
               2.99429                 10.992                 10.992
               1.99429                 11.992                 11.992
               20.9943      8.992000000000001                 10.992
               21.9943      9.992000000000001                 11.992
               2.99429      8.992000000000001                 10.992
               1.99429      9.992000000000001                 11.992
               19.9943                  7.992                 11.992
               3.99429                  7.992                 11.992
               20.9943                  6.992                 10.992
               19.9943                  5.992                 11.992
               18.9943                  4.992                 10.992
               2.99429                  6.992                 10.992
               3.99429                  5.992                 11.992
               4.99429                  4.992                 10.992
               17.9943                  3.992                 11.992
               15.9943                  3.992                 11.992
               16.9943                  2.992                 10.992
               14.9943                  2.992                 10.992
               12.9943                  2.992                 10.992
               10.9943                  2.992                 10.992
               7.99429                  3.992                 11.992
     8.994289999999999                  2.992                 10.992
               5.99429                  3.992                 11.992
               6.99429                  2.992                 10.992
               13.9943                  1.992                 11.992
               11.9943                  1.992                 11.992
     9.994289999999999                  1.992                 11.992
               17.9943                 19.992      9.992000000000001
               16.9943                 18.992      8.992000000000001
               15.9943                 19.992      9.992000000000001
               14.9943                 20.992      8.992000000000001
               12.9943                 20.992      8.992000000000001
               13.9943                 21.992      9.992000000000001
               10.9943                 20.992      8.992000000000001
               11.9943                 21.992      9.992000000000001
     8.994289999999999                 20.992      8.992000000000001
     9.994289999999999                 21.992      9.992000000000001
               7.99429                 19.992      9.992000000000001
               6.99429                 18.992      8.992000000000001
               5.99429                 19.992      9.992000000000001
               19.9943                 17.992      9.992000000000001
               18.9943                 18.992      8.992000000000001
               18.9943                 16.992      8.992000000000001
               4.99429                 18.992      8.992000000000001
               4.99429                 16.992      8.992000000000001
               3.99429                 17.992      9.992000000000001
               19.9943                 15.992      9.992000000000001
               3.99429                 15.992      9.992000000000001
               20.9943                 14.992      8.992000000000001
               20.9943                 12.992      8.992000000000001
               21.9943                 13.992      9.992000000000001
               2.99429                 14.992      8.992000000000001
               2.99429                 12.992      8.992000000000001
               1.99429                 13.992      9.992000000000001
               20.9943                 10.992      8.992000000000001
               21.9943                 11.992      9.992000000000001
               2.99429                 10.992      8.992000000000001
               1.99429                 11.992      9.992000000000001
               20.9943      8.992000000000001      8.992000000000001
               21.9943      9.992000000000001      9.992000000000001
               2.99429      8.992000000000001      8.992000000000001
               1.99429      9.992000000000001      9.992000000000001
               19.9943                  7.992      9.992000000000001
               18.9943                  6.992      8.992000000000001
               3.99429                  7.992      9.992000000000001
               4.99429                  6.992      8.992000000000001
               19.9943                  5.992      9.992000000000001
               18.9943                  4.992      8.992000000000001
               16.9943                  4.992      8.992000000000001
               6.99429                  4.992      8.992000000000001
               3.99429                  5.992      9.992000000000001
               4.99429                  4.992      8.992000000000001
               17.9943                  3.992      9.992000000000001
               15.9943                  3.992      9.992000000000001
               14.9943                  2.992      8.992000000000001
               12.9943                  2.992      8.992000000000001
               10.9943                  2.992      8.992000000000001
               7.99429                  3.992      9.992000000000001
     8.994289999999999                  2.992      8.992000000000001
               5.99429                  3.992      9.992000000000001
               13.9943                  1.992      9.992000000000001
               11.9943                  1.992      9.992000000000001
     9.994289999999999                  1.992      9.992000000000001
               15.9943                 19.992                  7.992
               14.9943                 18.992                  6.992
               13.9943                 19.992                  7.992
               12.9943                 20.992                  6.992
               11.9943                 19.992                  7.992
               10.9943                 20.992                  6.992
     9.994289999999999                 19.992                  7.992
     8.994289999999999                 18.992                  6.992
               7.99429                 19.992                  7.992
               17.9943                 17.992                  7.992
               16.9943                 18.992                  6.992
               6.99429                 18.992                  6.992
               5.99429                 17.992                  7.992
               19.9943                 15.992                  7.992
               18.9943                 16.992                  6.992
               18.9943                 14.992                  6.992
               4.99429                 16.992                  6.992
               4.99429                 14.992                  6.992
               3.99429                 15.992                  7.992
               19.9943                 13.992                  7.992
               3.99429                 13.992                  7.992
               20.9943                 12.992                  6.992
               19.9943                 11.992                  7.992
               2.99429                 12.992                  6.992
               3.99429                 11.992                  7.992
               20.9943                 10.992                  6.992
               19.9943      9.992000000000001                  7.992
               18.9943      8.992000000000001                  6.992
               2.99429                 10.992                  6.992
               3.99429      9.992000000000001                  7.992
               4.99429      8.992000000000001                  6.992
               19.9943                  7.992                  7.992
               18.9943                  6.992                  6.992
               3.99429                  7.992                  7.992
               4.99429                  6.992                  6.992
               17.9943                  5.992                  7.992
               16.9943                  4.992                  6.992
               14.9943                  4.992                  6.992
     8.994289999999999                  4.992                  6.992
               5.99429                  5.992                  7.992
               6.99429                  4.992                  6.992
               15.9943                  3.992                  7.992
               13.9943                  3.992                  7.992
               11.9943                  3.992                  7.992
               12.9943                  2.992                  6.992
     9.994289999999999                  3.992                  7.992
               10.9943                  2.992                  6.992
               7.99429                  3.992                  7.992
               13.9943                 19.992                  5.992
               12.9943                 18.992                  4.992
               11.9943                 19.992                  5.992
               10.9943                 18.992                  4.992
     9.994289999999999                 19.992                  5.992
               17.9943                 17.992                  5.992
               16.9943                 16.992                  4.992
               15.9943                 17.992                  5.992
               14.9943                 18.992                  4.992
               14.9943                 16.992                  4.992
     8.994289999999999                 18.992                  4.992
     8.994289999999999                 16.992                  4.992
               7.99429                 17.992                  5.992
               6.99429                 16.992                  4.992
               5.99429                 17.992                  5.992
               17.9943                 15.992                  5.992
               16.9943                 14.992                  4.992
               5.99429                 15.992                  5.992
               6.99429                 14.992                  4.992
               19.9943                 13.992                  5.992
               18.9943                 14.992                  4.992
               18.9943                 12.992                  4.992
               4.99429                 14.992                  4.992
               4.99429                 12.992                  4.992
               3.99429                 13.992                  5.992
               19.9943                 11.992                  5.992
               18.9943                 10.992                  4.992
               3.99429                 11.992                  5.992
               4.99429                 10.992                  4.992
               19.9943      9.992000000000001                  5.992
               18.9943      8.992000000000001                  4.992
               16.9943      8.992000000000001                  4.992
               6.99429      8.992000000000001                  4.992
               3.99429      9.992000000000001                  5.992
               4.99429      8.992000000000001                  4.992
               17.9943                  7.992                  5.992
               16.9943                  6.992                  4.992
               14.9943                  6.992                  4.992
     8.994289999999999                  6.992                  4.992
               5.99429                  7.992                  5.992
               6.99429                  6.992                  4.992
               17.9943                  5.992                  5.992
               15.9943                  5.992                  5.992
               14.9943                  4.992                  4.992
               12.9943                  4.992                  4.992
               10.9943                  4.992                  4.992
               7.99429                  5.992                  5.992
     8.994289999999999                  4.992                  4.992
               5.99429                  5.992                  5.992
               13.9943                  3.992                  5.992
               11.9943                  3.992                  5.992
     9.994289999999999                  3.992                  5.992
               13.9943                 17.992                  3.992
               12.9943                 16.992                  2.992
               11.9943                 17.992                  3.992
               10.9943                 16.992                  2.992
     9.994289999999999                 17.992                  3.992
               15.9943                 15.992                  3.992
               13.9943                 15.992                  3.992
               14.9943                 14.992                  2.992
               11.9943                 15.992                  3.992
               12.9943                 14.992                  2.992
     9.994289999999999                 15.992                  3.992
               10.9943                 14.992                  2.992
     8.994289999999999                 14.992                  2.992
               7.99429                 15.992                  3.992
               17.9943                 13.992                  3.992
               15.9943                 13.992                  3.992
               16.9943                 12.992                  2.992
               14.9943                 12.992                  2.992
               12.9943                 12.992                  2.992
               10.9943                 12.992                  2.992
               7.99429                 13.992                  3.992
     8.994289999999999                 12.992                  2.992
               6.99429                 12.992                  2.992
               5.99429                 13.992                  3.992
               17.9943                 11.992                  3.992
               15.9943                 11.992                  3.992
               16.9943                 10.992                  2.992
               14.9943                 10.992                  2.992
               12.9943                 10.992                  2.992
               10.9943                 10.992                  2.992
               7.99429                 11.992                  3.992
     8.994289999999999                 10.992                  2.992
               5.99429                 11.992                  3.992
               6.99429                 10.992                  2.992
               17.9943      9.992000000000001                  3.992
               15.9943      9.992000000000001                  3.992
               14.9943      8.992000000000001                  2.992
               12.9943      8.992000000000001                  2.992
               10.9943      8.992000000000001                  2.992
               7.99429      9.992000000000001                  3.992
     8.994289999999999      8.992000000000001                  2.992
               5.99429      9.992000000000001                  3.992
               15.9943                  7.992                  3.992
               13.9943                  7.992                  3.992
               11.9943                  7.992                  3.992
               12.9943                  6.992                  2.992
     9.994289999999999                  7.992                  3.992
               10.9943                  6.992                  2.992
               7.99429                  7.992                  3.992
               13.9943                  5.992                  3.992
               11.9943                  5.992                  3.992
     9.994289999999999                  5.992                  3.992
               13.9943                 13.992                  1.992
               11.9943                 13.992                  1.992
     9.994289999999999                 13.992                  1.992
               13.9943                 11.992                  1.992
               11.9943                 11.992                  1.992
     9.994289999999999                 11.992                  1.992
               13.9943      9.992000000000001                  1.992
               11.9943      9.992000000000001                  1.992
     9.994289999999999      9.992000000000001                  1.992

CELLS 1032 4128
3 0 1 2
3 1 3 2
3 4 5 1
3 5 6 1
3 8 7 2
3 3 8 2
3 7 8 9
3 8 10 9
3 6 11 1
3 11 3 1
3 11 12 8
3 3 11 8
3 13 14 5
3 14 6 5
3 14 15 11
3 6 14 11
3 13 16 14
3 16 17 14
3 19 18 9
3 10 19 9
3 18 19 20
3 19 21 20
3 12 10 8
3 10 22 19
3 12 23 24
3 23 22 24
3 22 10 24
3 10 12 24
3 15 12 11
3 15 25 26
3 25 23 26
3 23 12 26
3 12 15 26
3 17 15 14
3 17 27 28
3 27 25 28
3 25 15 28
3 15 17 28
3 29 30 16
3 30 17 16
3 17 30 27
3 29 31 30
3 31 32 30
3 34 33 20
3 21 34 20
3 22 35 19
3 35 21 19
3 35 36 34
3 21 35 34
3 22 37 35
3 23 38 39
3 38 37 39
3 37 22 39
3 22 23 39
3 25 40 41
3 40 38 41
3 38 23 41
3 23 25 41
3 27 42 43
3 42 40 43
3 40 25 43
3 25 27 43
3 32 44 30
3 44 27 30
3 27 44 42
3 45 46 31
3 46 32 31
3 46 47 44
3 32 46 44
3 49 48 34
3 36 49 34
3 37 50 35
3 50 36 35
3 50 51 49
3 36 50 49
3 37 52 50
3 38 53 54
3 53 52 54
3 52 37 54
3 37 38 54
3 40 55 56
3 55 53 56
3 53 38 56
3 38 40 56
3 42 57 58
3 57 55 58
3 55 40 58
3 40 42 58
3 47 59 44
3 59 42 44
3 42 59 57
3 60 61 46
3 61 47 46
3 61 62 59
3 47 61 59
3 63 51 50
3 52 63 50
3 53 64 52
3 64 65 63
3 52 64 63
3 55 66 53
3 66 67 64
3 53 66 64
3 57 68 55
3 68 69 66
3 55 68 66
3 62 70 59
3 70 57 59
3 70 71 68
3 57 70 68
3 72 65 64
3 67 72 64
3 69 73 66
3 73 67 66
3 73 74 72
3 67 73 72
3 71 75 68
3 75 69 68
3 75 76 73
3 69 75 73
3 77 78 79
3 78 0 79
3 80 81 78
3 81 4 78
3 82 83 84
3 83 85 84
3 0 87 79
3 87 86 79
3 87 7 83
3 86 87 83
3 7 87 2
3 87 0 2
3 4 0 78
3 0 4 1
3 88 89 81
3 89 4 81
3 89 13 5
3 4 89 5
3 89 90 13
3 88 90 89
3 91 92 90
3 92 93 90
3 95 94 84
3 85 95 84
3 7 85 83
3 85 18 95
3 18 85 9
3 85 7 9
3 93 13 90
3 93 29 16
3 13 93 16
3 96 97 92
3 97 93 92
3 93 97 29
3 18 99 95
3 99 98 95
3 99 33 100
3 98 99 100
3 33 99 20
3 99 18 20
3 101 102 97
3 102 29 97
3 102 45 31
3 29 102 31
3 102 103 45
3 101 103 102
3 105 104 100
3 33 105 100
3 33 48 105
3 48 33 34
3 45 60 46
3 106 107 103
3 107 45 103
3 45 107 60
3 109 108 105
3 48 109 105
3 111 110 109
3 48 111 109
3 51 111 49
3 111 48 49
3 60 112 61
3 112 62 61
3 113 114 107
3 114 60 107
3 112 114 115
3 60 114 112
3 51 116 111
3 111 116 110
3 51 117 116
3 65 117 63
3 117 51 63
3 62 118 70
3 118 71 70
3 115 119 112
3 112 119 62
3 62 119 118
3 121 120 116
3 117 121 116
3 65 122 117
3 122 123 121
3 117 122 121
3 125 124 122
3 65 125 122
3 74 125 72
3 125 65 72
3 76 74 73
3 71 126 75
3 126 76 75
3 118 127 71
3 126 127 128
3 71 127 126
3 129 130 119
3 130 118 119
3 130 131 127
3 118 130 127
3 74 132 125
3 125 132 124
3 76 133 74
3 133 134 132
3 74 133 132
3 128 135 126
3 126 135 76
3 135 136 133
3 76 135 133
3 137 138 139
3 138 86 139
3 138 77 79
3 86 138 79
3 140 141 138
3 141 77 138
3 141 80 78
3 77 141 78
3 142 143 141
3 143 80 141
3 143 88 81
3 80 143 81
3 144 145 143
3 145 88 143
3 146 82 84
3 94 146 84
3 86 82 139
3 82 147 139
3 147 82 146
3 82 86 83
3 148 91 145
3 91 88 145
3 88 91 90
3 148 149 91
3 149 96 92
3 91 149 92
3 94 150 146
3 94 98 151
3 150 94 151
3 98 94 95
3 152 96 149
3 96 101 97
3 96 153 101
3 152 153 96
3 155 154 151
3 98 155 151
3 155 98 100
3 104 155 100
3 156 157 153
3 157 101 153
3 157 106 103
3 101 157 103
3 159 158 155
3 104 159 155
3 108 159 105
3 159 104 105
3 160 161 157
3 161 106 157
3 161 113 107
3 106 161 107
3 163 162 159
3 108 163 159
3 110 163 109
3 163 108 109
3 164 165 161
3 165 113 161
3 165 115 114
3 113 165 114
3 167 166 163
3 110 167 163
3 120 168 167
3 110 120 167
3 120 110 116
3 115 129 119
3 169 170 165
3 170 115 165
3 129 170 171
3 115 170 129
3 120 172 168
3 123 172 121
3 172 120 121
3 123 173 172
3 124 123 122
3 131 128 127
3 171 174 129
3 131 174 175
3 174 131 130
3 129 174 130
3 124 176 123
3 123 176 173
3 177 178 176
3 124 177 176
3 134 177 132
3 177 124 132
3 179 180 177
3 134 179 177
3 136 179 133
3 179 134 133
3 181 182 179
3 136 181 179
3 181 136 135
3 128 181 135
3 175 183 131
3 131 183 128
3 183 184 181
3 128 183 181
3 185 186 187
3 186 147 187
3 186 137 139
3 147 186 139
3 188 189 190
3 189 140 190
3 140 137 190
3 137 188 190
3 188 137 186
3 137 140 138
3 189 191 192
3 191 142 192
3 142 140 192
3 140 189 192
3 140 142 141
3 191 193 194
3 193 144 194
3 144 142 194
3 142 191 194
3 142 144 143
3 193 195 144
3 195 148 145
3 144 195 145
3 196 197 195
3 197 148 195
3 147 199 187
3 199 198 187
3 199 150 200
3 198 199 200
3 150 199 146
3 199 147 146
3 201 202 197
3 202 148 197
3 202 152 149
3 148 202 149
3 202 203 152
3 201 203 202
3 205 204 200
3 150 205 200
3 205 150 151
3 154 205 151
3 206 207 203
3 207 152 203
3 207 156 153
3 152 207 153
3 154 208 205
3 209 208 210
3 158 209 210
3 154 158 210
3 208 154 210
3 158 154 155
3 211 156 207
3 156 160 157
3 212 213 211
3 160 213 212
3 156 213 160
3 211 213 156
3 214 209 215
3 162 214 215
3 158 162 215
3 209 158 215
3 162 158 159
3 160 164 161
3 216 217 212
3 164 217 216
3 160 217 164
3 212 217 160
3 218 214 219
3 166 218 219
3 162 166 219
3 214 162 219
3 166 162 163
3 164 169 165
3 220 221 216
3 169 221 220
3 164 221 169
3 216 221 164
3 166 222 218
3 168 222 167
3 222 166 167
3 220 223 169
3 223 171 170
3 169 223 170
3 225 224 222
3 168 225 222
3 227 226 225
3 168 227 225
3 173 227 172
3 227 168 172
3 171 228 174
3 228 175 174
3 229 230 223
3 230 171 223
3 228 230 231
3 171 230 228
3 173 232 227
3 227 232 226
3 233 234 232
3 173 233 232
3 178 233 176
3 233 173 176
3 178 235 233
3 180 178 177
3 182 180 179
3 184 182 181
3 184 238 239
3 238 184 183
3 175 238 183
3 231 240 228
3 228 240 175
3 240 241 238
3 175 240 238
3 235 242 236
3 236 242 180
3 180 242 178
3 178 242 235
3 236 243 237
3 237 243 182
3 182 243 180
3 180 243 236
3 237 244 239
3 239 244 184
3 184 244 182
3 182 244 237
3 245 185 187
3 198 245 187
3 246 247 245
3 247 185 245
3 247 188 186
3 185 247 186
3 248 249 250
3 249 189 250
3 189 188 250
3 188 248 250
3 248 188 247
3 249 251 252
3 251 191 252
3 191 189 252
3 189 249 252
3 251 253 254
3 253 193 254
3 193 191 254
3 191 251 254
3 253 255 193
3 255 196 195
3 193 255 195
3 256 257 255
3 257 196 255
3 257 201 197
3 196 257 197
3 258 198 200
3 204 258 200
3 198 259 245
3 259 198 258
3 260 201 257
3 260 261 201
3 261 206 203
3 201 261 203
3 263 262 258
3 204 263 258
3 208 263 205
3 263 204 205
3 264 265 261
3 265 206 261
3 265 211 207
3 206 265 207
3 208 266 263
3 267 266 268
3 209 267 268
3 208 209 268
3 266 208 268
3 269 211 265
3 270 271 269
3 212 271 270
3 211 271 212
3 269 271 211
3 272 267 273
3 214 272 273
3 209 214 273
3 267 209 273
3 274 275 270
3 216 275 274
3 212 275 216
3 270 275 212
3 276 272 277
3 218 276 277
3 214 218 277
3 272 214 277
3 278 279 274
3 220 279 278
3 216 279 220
3 274 279 216
3 218 280 276
3 224 280 222
3 280 218 222
3 278 281 220
3 281 229 223
3 220 281 223
3 283 282 280
3 224 283 280
3 226 283 225
3 283 224 225
3 226 284 283
3 285 286 281
3 286 229 281
3 231 286 287
3 286 231 230
3 229 286 230
3 226 288 284
3 234 288 232
3 288 226 232
3 289 290 288
3 234 289 288
3 235 289 233
3 289 234 233
3 235 291 289
3 239 294 295
3 241 294 238
3 294 239 238
3 287 296 231
3 296 297 294
3 241 296 294
3 296 241 240
3 231 296 240
3 291 298 292
3 292 298 236
3 236 298 235
3 235 298 291
3 292 299 293
3 293 299 237
3 237 299 236
3 236 299 292
3 293 300 295
3 295 300 239
3 239 300 237
3 237 300 293
3 301 246 245
3 259 301 245
3 302 303 301
3 303 246 301
3 303 248 247
3 246 303 247
3 304 305 306
3 305 249 306
3 249 248 306
3 248 304 306
3 304 248 303
3 305 307 308
3 307 251 308
3 251 249 308
3 249 305 308
3 307 309 310
3 309 253 310
3 253 251 310
3 251 307 310
3 309 311 253
3 311 256 255
3 253 311 255
3 312 313 311
3 313 256 311
3 313 260 257
3 256 313 257
3 314 259 258
3 262 314 258
3 315 302 301
3 259 315 301
3 316 315 314
3 315 259 314
3 312 317 313
3 317 260 313
3 318 319 317
3 317 319 260
3 319 264 261
3 260 319 261
3 320 316 314
3 262 320 314
3 266 320 263
3 320 262 263
3 321 264 319
3 318 321 319
3 321 269 265
3 264 321 265
3 266 322 320
3 323 322 324
3 267 323 324
3 266 267 324
3 322 266 324
3 325 269 321
3 326 327 325
3 270 327 326
3 269 327 270
3 325 327 269
3 328 323 329
3 272 328 329
3 267 272 329
3 323 267 329
3 330 331 326
3 274 331 330
3 270 331 274
3 326 331 270
3 332 328 333
3 276 332 333
3 272 276 333
3 328 272 333
3 334 335 330
3 278 335 334
3 274 335 278
3 330 335 274
3 276 336 332
3 282 336 280
3 336 276 280
3 334 338 278
3 338 285 281
3 278 338 281
3 340 337 336
3 282 340 336
3 284 340 283
3 340 282 283
3 341 337 340
3 284 341 340
3 344 285 338
3 339 344 338
3 345 344 339
3 287 344 345
3 344 287 286
3 285 344 286
3 341 346 342
3 284 346 341
3 290 346 288
3 346 284 288
3 290 347 346
3 347 342 346
3 291 347 289
3 347 290 289
3 291 348 347
3 295 351 352
3 297 351 294
3 351 295 294
3 343 353 345
3 345 353 287
3 297 353 351
3 353 343 351
3 353 297 296
3 287 353 296
3 348 354 349
3 349 354 292
3 292 354 291
3 291 354 348
3 349 355 350
3 350 355 293
3 293 355 292
3 292 355 349
3 350 356 352
3 352 356 295
3 295 356 293
3 293 356 350
3 357 304 303
3 302 357 303
3 358 359 357
3 359 304 357
3 304 359 305
3 360 361 359
3 361 305 359
3 305 361 307
3 362 363 361
3 363 307 361
3 307 363 309
3 364 365 363
3 365 309 363
3 365 312 311
3 309 365 311
3 316 366 315
3 315 366 302
3 367 358 357
3 302 367 357
3 367 302 366
3 364 368 365
3 368 312 365
3 368 369 312
3 317 369 318
3 312 369 317
3 370 316 320
3 322 370 320
3 316 371 366
3 372 371 370
3 371 316 370
3 373 318 369
3 374 375 373
3 373 375 318
3 375 325 321
3 318 375 321
3 376 372 370
3 322 376 370
3 323 376 322
3 377 325 375
3 374 377 375
3 325 377 326
3 379 378 376
3 323 379 376
3 328 379 323
3 380 381 377
3 381 326 377
3 326 381 330
3 383 382 379
3 328 383 379
3 332 383 328
3 385 386 381
3 386 330 381
3 330 386 334
3 388 384 383
3 332 388 383
3 337 388 336
3 388 332 336
3 389 384 388
3 337 389 388
3 390 334 386
3 387 390 386
3 391 390 387
3 339 390 391
3 390 339 338
3 334 390 338
3 337 392 389
3 342 392 341
3 341 392 337
3 342 393 392
3 391 396 339
3 343 396 397
3 339 396 345
3 345 396 343
3 393 398 394
3 342 398 393
3 348 398 347
3 398 342 347
3 348 399 398
3 399 394 398
3 349 399 348
3 400 401 399
3 349 400 399
3 350 400 349
3 402 403 400
3 350 402 400
3 352 402 350
3 395 404 397
3 397 404 343
3 352 404 402
3 404 395 402
3 404 352 351
3 343 404 351
3 405 360 359
3 358 405 359
3 406 407 405
3 407 360 405
3 407 362 361
3 360 407 361
3 408 409 407
3 409 362 407
3 409 364 363
3 362 409 363
3 410 367 366
3 371 410 366
3 411 412 410
3 412 367 410
3 367 412 358
3 413 406 405
3 358 413 405
3 414 413 412
3 413 358 412
3 406 408 407
3 408 415 409
3 415 364 409
3 416 417 415
3 415 417 364
3 364 417 368
3 418 419 417
3 419 368 417
3 419 373 369
3 368 419 369
3 420 411 410
3 371 420 410
3 372 420 371
3 411 414 412
3 421 411 420
3 416 418 417
3 422 373 419
3 418 422 419
3 423 422 418
3 373 422 374
3 424 372 376
3 378 424 376
3 425 421 420
3 372 425 420
3 426 425 424
3 425 372 424
3 423 427 422
3 427 374 422
3 428 429 427
3 427 429 374
3 429 380 377
3 374 429 377
3 430 426 424
3 378 430 424
3 382 430 379
3 430 378 379
3 431 426 430
3 432 380 429
3 428 432 429
3 433 432 428
3 432 385 381
3 380 432 381
3 434 431 430
3 382 434 430
3 384 434 383
3 434 382 383
3 435 431 434
3 384 435 434
3 438 385 432
3 433 438 432
3 439 438 433
3 387 438 439
3 438 387 386
3 385 438 386
3 435 440 436
3 384 440 435
3 389 440 384
3 441 436 440
3 437 444 439
3 439 444 387
3 445 444 437
3 387 444 391
3 446 441 440
3 389 446 440
3 393 446 392
3 446 389 392
3 441 447 442
3 393 447 446
3 447 441 446
3 394 447 393
3 448 442 447
3 394 448 447
3 443 451 445
3 452 451 443
3 395 451 452
3 397 451 395
3 453 391 444
3 445 453 444
3 397 453 451
3 453 445 451
3 453 397 396
3 391 453 396
3 448 454 449
3 394 454 448
3 401 454 399
3 454 394 399
3 449 455 450
3 401 455 454
3 455 449 454
3 403 455 400
3 455 401 400
3 450 456 452
3 452 456 395
3 403 456 455
3 456 450 455
3 456 403 402
3 395 456 402
3 414 457 413
3 413 457 406
3 458 459 457
3 459 406 457
3 406 459 408
3 460 461 459
3 461 408 459
3 415 461 416
3 408 461 415
3 421 462 411
3 411 462 414
3 463 458 457
3 414 463 457
3 464 463 462
3 463 414 462
3 465 460 459
3 458 465 459
3 466 465 463
3 465 458 463
3 467 416 461
3 460 467 461
3 468 467 465
3 467 460 465
3 469 470 467
3 470 416 467
3 418 470 423
3 416 470 418
3 426 471 425
3 425 471 421
3 472 464 462
3 421 472 462
3 473 472 471
3 472 421 471
3 464 466 463
3 474 464 472
3 466 468 465
3 468 469 467
3 477 423 470
3 469 477 470
3 478 477 469
3 479 480 477
3 480 423 477
3 427 480 428
3 423 480 427
3 481 473 471
3 426 481 471
3 431 481 426
3 482 474 472
3 473 482 472
3 483 482 481
3 482 473 481
3 484 474 482
3 487 479 477
3 478 487 477
3 488 487 478
3 489 428 480
3 479 489 480
3 490 489 487
3 489 479 487
3 428 489 433
3 491 483 481
3 431 491 481
3 436 491 435
3 435 491 431
3 492 484 482
3 483 492 482
3 436 492 491
3 492 483 491
3 493 484 492
3 496 490 487
3 488 496 487
3 497 496 488
3 498 433 489
3 490 498 489
3 437 498 496
3 498 490 496
3 433 498 439
3 439 498 437
3 499 493 492
3 436 499 492
3 442 499 441
3 441 499 436
3 493 500 494
3 442 500 499
3 500 493 499
3 494 501 495
3 502 501 500
3 501 494 500
3 495 503 497
3 504 503 501
3 503 495 501
3 505 437 496
3 497 505 496
3 443 505 503
3 505 497 503
3 437 505 445
3 445 505 443
3 506 502 500
3 442 506 500
3 449 506 448
3 448 506 442
3 507 504 501
3 502 507 501
3 449 507 506
3 507 502 506
3 450 507 449
3 508 443 503
3 504 508 503
3 450 508 507
3 508 504 507
3 443 508 452
3 452 508 450
3 466 509 475
3 475 509 474
3 474 509 464
3 464 509 466
3 468 510 476
3 476 510 475
3 475 510 466
3 466 510 468
3 469 511 478
3 478 511 476
3 476 511 468
3 468 511 469
3 475 512 485
3 485 512 484
3 484 512 474
3 474 512 475
3 476 513 486
3 486 513 485
3 485 513 475
3 475 513 476
3 478 514 488
3 488 514 486
3 486 514 476
3 476 514 478
3 485 515 494
3 494 515 493
3 493 515 484
3 484 515 485
3 486 516 495
3 495 516 494
3 494 516 485
3 485 516 486
3 488 517 497
3 497 517 495
3 495 517 486
3 486 517 488

CELL_TYPES 1032
5
5
5
5
5
5
5
5
5
5
5
5
5
5
5
5
5
5
5
5
5
5
5
5
5
5
5
5
5
5
5
5
5
5
5
5
5
5
5
5
5
5
5
5
5
5
5
5
5
5
5
5
5
5
5
5
5
5
5
5
5
5
5
5
5
5
5
5
5
5
5
5
5
5
5
5
5
5
5
5
5
5
5
5
5
5
5
5
5
5
5
5
5
5
5
5
5
5
5
5
5
5
5
5
5
5
5
5
5
5
5
5
5
5
5
5
5
5
5
5
5
5
5
5
5
5
5
5
5
5
5
5
5
5
5
5
5
5
5
5
5
5
5
5
5
5
5
5
5
5
5
5
5
5
5
5
5
5
5
5
5
5
5
5
5
5
5
5
5
5
5
5
5
5
5
5
5
5
5
5
5
5
5
5
5
5
5
5
5
5
5
5
5
5
5
5
5
5
5
5
5
5
5
5
5
5
5
5
5
5
5
5
5
5
5
5
5
5
5
5
5
5
5
5
5
5
5
5
5
5
5
5
5
5
5
5
5
5
5
5
5
5
5
5
5
5
5
5
5
5
5
5
5
5
5
5
5
5
5
5
5
5
5
5
5
5
5
5
5
5
5
5
5
5
5
5
5
5
5
5
5
5
5
5
5
5
5
5
5
5
5
5
5
5
5
5
5
5
5
5
5
5
5
5
5
5
5
5
5
5
5
5
5
5
5
5
5
5
5
5
5
5
5
5
5
5
5
5
5
5
5
5
5
5
5
5
5
5
5
5
5
5
5
5
5
5
5
5
5
5
5
5
5
5
5
5
5
5
5
5
5
5
5
5
5
5
5
5
5
5
5
5
5
5
5
5
5
5
5
5
5
5
5
5
5
5
5
5
5
5
5
5
5
5
5
5
5
5
5
5
5
5
5
5
5
5
5
5
5
5
5
5
5
5
5
5
5
5
5
5
5
5
5
5
5
5
5
5
5
5
5
5
5
5
5
5
5
5
5
5
5
5
5
5
5
5
5
5
5
5
5
5
5
5
5
5
5
5
5
5
5
5
5
5
5
5
5
5
5
5
5
5
5
5
5
5
5
5
5
5
5
5
5
5
5
5
5
5
5
5
5
5
5
5
5
5
5
5
5
5
5
5
5
5
5
5
5
5
5
5
5
5
5
5
5
5
5
5
5
5
5
5
5
5
5
5
5
5
5
5
5
5
5
5
5
5
5
5
5
5
5
5
5
5
5
5
5
5
5
5
5
5
5
5
5
5
5
5
5
5
5
5
5
5
5
5
5
5
5
5
5
5
5
5
5
5
5
5
5
5
5
5
5
5
5
5
5
5
5
5
5
5
5
5
5
5
5
5
5
5
5
5
5
5
5
5
5
5
5
5
5
5
5
5
5
5
5
5
5
5
5
5
5
5
5
5
5
5
5
5
5
5
5
5
5
5
5
5
5
5
5
5
5
5
5
5
5
5
5
5
5
5
5
5
5
5
5
5
5
5
5
5
5
5
5
5
5
5
5
5
5
5
5
5
5
5
5
5
5
5
5
5
5
5
5
5
5
5
5
5
5
5
5
5
5
5
5
5
5
5
5
5
5
5
5
5
5
5
5
5
5
5
5
5
5
5
5
5
5
5
5
5
5
5
5
5
5
5
5
5
5
5
5
5
5
5
5
5
5
5
5
5
5
5
5
5
5
5
5
5
5
5
5
5
5
5
5
5
5
5
5
5
5
5
5
5
5
5
5
5
5
5
5
5
5
5
5
5
5
5
5
5
5
5
5
5
5
5
5
5
5
5
5
5
5
5
5
5
5
5
5
5
5
5
5
5
5
5
5
5
5
5
5
5
5
5
5
5
5
5
5
5
5
5
5
5
5
5
5
5
5
5
5
5
5
5
5
5
5
5
5
5
5
5
5
5
5
5
5
5
5
5
5
5
5
5
5
5
5
5
5
5
5
5
5
5
5
5
5
5
5
5
5
5
5
5
5
5
5
5
5
5
5
5
5
5
5
5
5
5
5
5
5
5
5
5
5
5
5
5
5
5
5
5
5
5
5
5
5
5
5
5
5
5
5
5
5
5
5
5
5
5
5
5
5
5
5
5
5
5
5
5
5
5
5
5
5
5
5
5
5
5
5
5
5
5
5
5
5
5
5
5
5
5
5
5
5
5
5
5
5
5
5
5
5
5
5
5
5
5
5
5
5
5
5
5
5
5
5
5
5
5
5
5
5
5
5
5
5
5
5
5
5
5
5
5
5
5
5
5
5
5
5
5
5
5
5
5
5
5
5
5
5
5
5
5
5
5
5
5
5
5
5
5
5
5
5
5
5
5
5
5