# vtk DataFile Version 3.0
This file was written using writevtk_unstr.m
ASCII
DATASET UNSTRUCTURED_GRID
POINTS 9 double
                     0                      0                      0
                   0.5                      0                      0
                     1                      0                      0
                     0                    0.5                      0
                   0.5                    0.5                      0
                     1                    0.5                      0
                     0                      1                      0
                   0.5                      1                      0
                     1                      1                      0

CELLS 8 32
3 0 1 3
3 1 4 3
3 3 7 6
3 4 8 7
3 3 4 7
3 1 2 4
3 4 5 8
3 4 2 5

CELL_TYPES 8
5
5
5
5
5
5
5
5